<?xml version="1.0" encoding="utf-8"?>
<!-- Generator: Adobe Illustrator 25.3.1, SVG Export Plug-In . SVG Version: 6.00 Build 0)  -->
<svg version="1.1" id="Layer_3" xmlns="http://www.w3.org/2000/svg" xmlns:xlink="http://www.w3.org/1999/xlink" x="0px" y="0px"
	 viewBox="0 0 512 512" style="enable-background:new 0 0 512 512;" xml:space="preserve">
<style type="text/css">
	.st0{fill:#00ACD8;}
</style>
<path class="st0" d="M112,168h16v32h-16V168z"/>
<path class="st0" d="M192,168h16v32h-16V168z"/>
<path class="st0" d="M176,240c0,4.4-3.6,8-8,8h-16c-4.4,0-8-3.6-8-8v-8h-16v8c0,13.2,10.8,24,24,24h16c13.2,0,24-10.8,24-24v-8h-16
	V240z"/>
<path class="st0" d="M287.8,65.6c0.8-3.8-1.3-7.6-4.9-9l-120-48c-1.9-0.8-4-0.8-5.9,0l-120,48c-3.6,1.4-5.6,5.2-4.9,9l5.9,29.5
	C18.7,116.6,8,144.1,8,173.3v60.1c0,16.7,6.5,32.5,18.3,44.3C38.2,289.5,53.9,296,70.6,296H120v16H70.6c-16.7,0-32.5,6.5-44.3,18.3
	C14.5,342.2,8,357.9,8,374.6V496c0,4.4,3.6,8,8,8h288c4.4,0,8-3.6,8-8V374.6c0-16.7-6.5-32.5-18.3-44.3
	c-11.8-11.8-27.6-18.3-44.3-18.3H200v-16h49.4c16.7,0,32.5-6.5,44.3-18.3c11.8-11.8,18.3-27.5,18.3-44.3v-60.1
	c0-29.2-10.7-56.6-30.1-78.2L287.8,65.6z M168,280h-16c-39.7,0-72-32.3-72-72v-56h160v56C240,247.7,207.7,280,168,280z M62.6,136
	l-3.2-16h201.3l-3.2,16H62.6z M160,24.6L270.8,69l-7,35H56.2l-7-35L160,24.6z M37.7,266.3c-8.8-8.8-13.7-20.5-13.7-33v-60.1
	c0-21,6.4-40.9,18.1-57.8l6,30.1c0.7,3.7,4,6.4,7.8,6.4h8v56c0,29.8,14.9,56.1,37.6,72H70.6C58.2,280,46.5,275.2,37.7,266.3z
	 M200.4,402.5l6.6,19.9l-33.4,42.9l23.4-128.9l31.6,31.6l-26.3,26.3C200.2,396.5,199.5,399.7,200.4,402.5z M117.7,394.3L91.3,368
	l31.5-31.5l23.4,128.9l-33.4-42.9l6.6-19.9C120.5,399.7,119.8,396.5,117.7,394.3z M160,451.3L137.6,328h44.8L160,451.3z M24,374.6
	c0-12.5,4.8-24.2,13.7-33c8.8-8.8,20.5-13.7,33-13.7h38.1l-34.3,34.3c-3.1,3.1-3.1,8.2,0,11.3l28.5,28.5l-6.4,19.3
	c-0.8,2.5-0.4,5.3,1.3,7.4l46,59.1H24V374.6z M282.3,341.7c8.8,8.8,13.7,20.5,13.7,33V488H176.4l46-59.1c1.6-2.1,2.1-4.9,1.3-7.4
	l-6.4-19.3l28.5-28.5c3.1-3.1,3.1-8.2,0-11.3L211.3,328h38.1C261.8,328,273.5,332.8,282.3,341.7z M136,312v-17.5
	c5.2,1,10.5,1.5,16,1.5h16c5.5,0,10.8-0.6,16-1.5V312L136,312z M296,173.3v60.1c0,12.5-4.8,24.2-13.7,33c-8.8,8.8-20.5,13.7-33,13.7
	h-30.9c22.7-15.9,37.6-42.2,37.6-72v-56h8c3.8,0,7.1-2.7,7.8-6.4l6-30.1C289.6,132.3,296,152.3,296,173.3z"/>
<path class="st0" d="M136,72h16v16h16V72h16V56h-16V40h-16v16h-16V72z"/>
<path class="st0" d="M429.6,240h4.8c21.3,0,41.1-9.5,54.4-26.1c9.8-12.3,15.2-27.7,15.2-43.5c0-18.7-5.2-37.1-15-53.1l-50.2-81.5
	c-2.9-4.7-10.7-4.7-13.6,0L375,117.3c-9.8,16-15,34.3-15,53.1c0,15.7,5.4,31.2,15.3,43.5C388.5,230.5,408.4,240,429.6,240L429.6,240
	z M388.6,125.7L432,55.3l43.4,70.4c8.3,13.5,12.6,28.9,12.6,44.7c0,12.1-4.2,24-11.7,33.5C466,216.7,450.8,224,434.4,224h-4.8
	c-16.4,0-31.6-7.3-41.9-20.1c-7.6-9.5-11.7-21.4-11.7-33.5C376,154.6,380.4,139.2,388.6,125.7L388.6,125.7z"/>
<path class="st0" d="M472,168h-16c0,13.2-10.8,24-24,24v16C454.1,208,472,190.1,472,168z"/>
<path class="st0" d="M438.8,275.8c-2.9-4.7-10.7-4.7-13.6,0L375,357.3c-9.8,16-15,34.3-15,53.1c0,15.7,5.4,31.2,15.3,43.5
	c13.3,16.6,33.1,26.1,54.4,26.1h4.8c21.3,0,41.1-9.5,54.4-26.1c9.8-12.3,15.2-27.7,15.2-43.5c0-18.7-5.2-37.1-15-53.1L438.8,275.8z
	 M476.3,443.9C466,456.7,450.8,464,434.4,464h-4.8c-16.4,0-31.6-7.3-41.9-20.1c-7.6-9.5-11.7-21.4-11.7-33.5
	c0-15.8,4.4-31.2,12.6-44.7l43.4-70.5l43.4,70.4c8.3,13.5,12.6,28.9,12.6,44.7C488,422.5,483.8,434.4,476.3,443.9L476.3,443.9z"/>
<path class="st0" d="M432,432v16c22.1,0,40-17.9,40-40h-16C456,421.2,445.2,432,432,432z"/>
</svg>
