<?xml version="1.0" encoding="utf-8"?>
<!-- Generator: Adobe Illustrator 25.3.1, SVG Export Plug-In . SVG Version: 6.00 Build 0)  -->
<svg version="1.1" id="Layer_3" xmlns="http://www.w3.org/2000/svg" xmlns:xlink="http://www.w3.org/1999/xlink" x="0px" y="0px"
	 viewBox="0 0 512 512" style="enable-background:new 0 0 512 512;" xml:space="preserve">
<style type="text/css">
	.st0{fill:#00ACD8;}
</style>
<path class="st0" d="M496,216h-77.1c13.6-15.5,21.1-35.2,21.1-56c0-17.3-5.1-34-14.7-48.4l-66.7-100c-3-4.5-10.3-4.5-13.3,0
	l-66.7,100C269.1,126,264,142.7,264,160c0,20.8,7.5,40.5,21.1,56H208c-4.4,0-8,3.6-8,8v24h-32v-24c0-4.4-3.6-8-8-8h-8v-16
	c0-17.6-14.4-32-32-32s-32,14.4-32,32v16h-8c-4.4,0-8,3.6-8,8v24h-8c-30.9,0-56,25.1-56,56v128c0,13.2,10.8,24,24,24h40.6
	c3.9,27.1,27.2,48,55.4,48s51.5-20.9,55.4-48H208h136.6c3.9,27.1,27.2,48,55.4,48s51.5-20.9,55.4-48H496c4.4,0,8-3.6,8-8V224
	C504,219.6,500.4,216,496,216L496,216z M104,200c0-8.8,7.2-16,16-16s16,7.2,16,16v16h-32V200z M88,232h64v16H88V232z M24,432V304
	c0-22.1,17.9-40,40-40h136v176h-16.6c-3.9-27.1-27.2-48-55.4-48s-51.5,20.9-55.4,48H32C27.6,440,24,436.4,24,432z M128,488
	c-22.1,0-40-17.9-40-40s17.9-40,40-40s40,17.9,40,40S150.1,488,128,488z M292,120.5l60-90l60,90c7.8,11.7,12,25.4,12,39.5
	c0,18.5-7.2,35.9-20.3,49l-2.8,2.8c-13.1,13.1-30.5,20.3-49,20.3s-35.9-7.2-49-20.3c0,0,0,0,0,0l-2.7-2.7
	c-13.1-13.1-20.3-30.5-20.3-49C280,145.9,284.1,132.2,292,120.5L292,120.5z M400,488c-22.1,0-40-17.9-40-40s17.9-40,40-40
	s40,17.9,40,40S422.1,488,400,488z M488,440h-32.6c-3.9-27.1-27.2-48-55.4-48s-51.5,20.9-55.4,48H216V232h86.4
	c14.4,10.3,31.5,16,49.6,16s35.2-5.7,49.6-16H488L488,440z"/>
<path class="st0" d="M240,264c-4.4,0-8,3.6-8,8v64c0,4.4,3.6,8,8,8h224c4.4,0,8-3.6,8-8v-64c0-4.4-3.6-8-8-8H240z M456,280v16H248
	v-16H456z M248,328v-16h208v16H248z"/>
<path class="st0" d="M128,360c4.4,0,8-3.6,8-8v-64c0-4.4-3.6-8-8-8H64c-13.2,0-24,10.8-24,24v48c0,4.4,3.6,8,8,8H128z M56,304
	c0-4.4,3.6-8,8-8h56v48H56V304z"/>
<path class="st0" d="M152,280h16v80h-16V280z"/>
<path class="st0" d="M128,424c-13.2,0-24,10.8-24,24s10.8,24,24,24s24-10.8,24-24S141.2,424,128,424z M128,456c-4.4,0-8-3.6-8-8
	s3.6-8,8-8s8,3.6,8,8S132.4,456,128,456z"/>
<path class="st0" d="M400,424c-13.2,0-24,10.8-24,24s10.8,24,24,24s24-10.8,24-24S413.2,424,400,424z M400,456c-4.4,0-8-3.6-8-8
	s3.6-8,8-8s8,3.6,8,8S404.4,456,400,456z"/>
<path class="st0" d="M328,184v24c0,4.4,3.6,8,8,8h32c4.4,0,8-3.6,8-8v-24h24c4.4,0,8-3.6,8-8v-32c0-4.4-3.6-8-8-8h-24v-24
	c0-4.4-3.6-8-8-8h-32c-4.4,0-8,3.6-8,8v24h-24c-4.4,0-8,3.6-8,8v32c0,4.4,3.6,8,8,8H328z M312,152h24c4.4,0,8-3.6,8-8v-24h16v24
	c0,4.4,3.6,8,8,8h24v16h-24c-4.4,0-8,3.6-8,8v24h-16v-24c0-4.4-3.6-8-8-8h-24V152z"/>
</svg>
