<?xml version="1.0" encoding="utf-8"?>
<!-- Generator: Adobe Illustrator 25.3.1, SVG Export Plug-In . SVG Version: 6.00 Build 0)  -->
<svg version="1.1" id="Layer_3" xmlns="http://www.w3.org/2000/svg" xmlns:xlink="http://www.w3.org/1999/xlink" x="0px" y="0px"
	 viewBox="0 0 512 512" style="enable-background:new 0 0 512 512;" xml:space="preserve">
<style type="text/css">
	.st0{fill:#00ACD8;}
</style>
<path class="st0" d="M496,104H48c-4.4,0-8,3.6-8,8v24H16c-4.4,0-8,3.6-8,8v256c0,4.4,3.6,8,8,8h448c4.4,0,8-3.6,8-8v-24h24
	c4.4,0,8-3.6,8-8V112C504,107.6,500.4,104,496,104z M456,392H24V152h432V392z M488,360h-16V144c0-4.4-3.6-8-8-8H56v-16h432V360z"/>
<path class="st0" d="M48,360h144c4.4,0,8-3.6,8-8V192c0-4.4-3.6-8-8-8H48c-4.4,0-8,3.6-8,8v160C40,356.4,43.6,360,48,360z M104,248
	c0-8.8,7.2-16,16-16s16,7.2,16,16c0,8.8-7.2,16-16,16S104,256.8,104,248z M120,280c17.6,0,32,14.4,32,32v32H88v-32
	C88,294.4,102.4,280,120,280z M56,200h128v144h-16v-32c0-18.1-10-33.8-24.9-42c5.5-5.7,8.9-13.4,8.9-22c0-17.6-14.4-32-32-32
	s-32,14.4-32,32c0,8.5,3.4,16.2,8.9,22C82,278.2,72,293.9,72,312v32H56V200z"/>
<path class="st0" d="M336,264h24v24c0,4.4,3.6,8,8,8h32c4.4,0,8-3.6,8-8v-24h24c4.4,0,8-3.6,8-8v-32c0-4.4-3.6-8-8-8h-24v-24
	c0-4.4-3.6-8-8-8h-32c-4.4,0-8,3.6-8,8v24h-24c-4.4,0-8,3.6-8,8v32C328,260.4,331.6,264,336,264z M344,232h24c4.4,0,8-3.6,8-8v-24
	h16v24c0,4.4,3.6,8,8,8h24v16h-24c-4.4,0-8,3.6-8,8v24h-16v-24c0-4.4-3.6-8-8-8h-24V232z"/>
<path class="st0" d="M224,360h208c4.4,0,8-3.6,8-8v-32c0-4.4-3.6-8-8-8H224c-4.4,0-8,3.6-8,8v32C216,356.4,219.6,360,224,360z
	 M232,328h192v16H232V328z"/>
<path class="st0" d="M216,184h96v16h-96V184z"/>
<path class="st0" d="M216,216h96v16h-96V216z"/>
<path class="st0" d="M216,248h96v16h-96V248z"/>
<path class="st0" d="M216,280h96v16h-96V280z"/>
</svg>
